{
    "compilerOptions": {
        "experimentalDecorators": true,
        "baseUrl": ".",
        "paths": {
            "c/miniCartWidget": [
                "miniCartWidget/miniCartWidget.js"
            ],
            "c/b2bshutil": [
                "b2bshutil/b2bshutil.js"
            ]
        }
    },
    "include": [
        "**/*",
        "../../../../.sfdx/typings/lwc/**/*.d.ts"
    ],
    "typeAcquisition": {
        "include": [
            "jest"
        ]
    }
}
